<?xml version="1.0" standalone="no"?>
<!DOCTYPE svg PUBLIC "-//W3C//DTD SVG 1.1//EN" "http://www.w3.org/Graphics/SVG/1.1/DTD/svg11.dtd" >
<svg xmlns="http://www.w3.org/2000/svg">
<metadata>Generated by IcoMoon</metadata>
<defs>
<font id="icomoon" horiz-adv-x="1024">
<font-face units-per-em="1024" ascent="960" descent="-64" />
<missing-glyph horiz-adv-x="1024" />
<glyph unicode="&#x20;" horiz-adv-x="512" d="" />
<glyph unicode="&#xe900;" glyph-name="settings" horiz-adv-x="975" d="M921.722 553.895l-76.395 9.711c-6.295 19.383-14.058 38.075-23.118 55.832l47.177 60.75c19.095 24.584 16.862 59.286-4.959 80.416l-64 64c-21.333 22.024-56.037 24.219-80.662 5.161l-60.665-47.177c-17.759 9.061-36.45 16.823-55.876 23.121l-9.708 76.272c-3.657 30.598-29.623 53.638-60.387 53.638h-91.020c-30.761 0-56.727-23.040-60.384-53.516l-9.711-76.394c-19.424-6.298-38.116-14.019-55.873-23.121l-60.709 47.177c-24.543 19.058-59.246 16.863-80.416-4.958l-64-63.96c-22.024-21.374-24.259-56.076-5.161-80.701l47.177-60.709c-9.102-17.757-16.823-36.45-23.121-55.832l-76.272-9.711c-30.598-3.657-53.638-29.623-53.638-60.384v-91.020c0-30.764 23.040-56.73 53.516-60.387l76.394-9.708c6.298-19.383 14.060-38.078 23.121-55.832l-47.177-60.752c-19.098-24.581-16.863-59.285 4.958-80.413l64-64c21.374-21.987 56.036-24.181 80.66-5.12l60.709 47.177c17.757-9.104 36.45-16.867 55.832-23.123l9.711-76.229c3.657-30.681 29.623-53.721 60.384-53.721h91.020c30.764 0 56.73 23.040 60.387 53.516l9.708 76.395c19.383 6.295 38.078 14.058 55.832 23.118l60.752-47.177c24.581-19.095 59.285-16.862 80.413 4.959l64 64c22.026 21.372 24.259 56.037 5.164 80.662l-47.177 60.709c9.099 17.754 16.862 36.45 23.118 55.832l76.234 9.708c30.598 3.657 53.638 29.623 53.638 60.387v91.020c0.039 30.761-23.001 56.727-53.477 60.384zM487.619 244.824c-112.030 0-203.175 91.146-203.175 203.176s91.144 203.175 203.175 203.175c112.030 0 203.176-91.144 203.176-203.175s-91.146-203.176-203.176-203.176z" />
<glyph unicode="&#xe901;" glyph-name="map" horiz-adv-x="1078" d="M377.263 723.833l-377.263 188.631v-713.351l377.263-188.632 323.368 161.684 377.263-188.632v713.351l-377.263 188.632-323.368-161.684zM700.632 286.316l-323.368-161.684v485.053l323.368 161.684v-485.053z" />
<glyph unicode="&#xe902;" glyph-name="comment" d="M128 928c-33.948 0-66.505-13.486-90.51-37.491s-37.49-56.562-37.49-90.509v-818.752c0.001-6.33 1.881-12.518 5.401-17.786 3.52-5.261 8.523-9.363 14.375-11.782s12.289-3.046 18.498-1.805c6.209 1.242 11.91 4.301 16.382 8.781l182.592 182.592c11.999 12 28.276 18.746 45.248 18.752h613.504c33.946 0 66.502 13.485 90.509 37.491s37.491 56.563 37.491 90.509v512c0 33.948-13.485 66.505-37.491 90.509s-56.563 37.491-90.509 37.491h-768z" />
<glyph unicode="&#xe903;" glyph-name="calendar" horiz-adv-x="904" d="M225.88 960c-17.822 0-32.27-15.767-32.27-35.217v-108.369h64.537v108.369c0 19.45-14.447 35.217-32.267 35.217zM677.647 960c-17.824 0-32.274-15.767-32.274-35.217v-108.369h64.542v108.369c0 19.45-14.45 35.217-32.268 35.217zM709.915 816.413h96.81c53.465 0 96.804-47.301 96.804-105.65v-669.117c0-58.35-43.339-105.647-96.804-105.647h-709.919c-53.465 0-96.807 47.297-96.807 105.647v669.117c0 58.349 43.342 105.65 96.807 105.65h96.805v-140.867c0-19.45 14.447-35.217 32.27-35.217s32.269 15.767 32.269 35.217v140.867h387.229v-140.867c0-19.45 14.444-35.217 32.268-35.217s32.268 15.767 32.268 35.217v140.867zM806.719 6.427c17.824 0 32.274 15.77 32.274 35.22v457.815h-774.455v-457.815c0-19.45 14.447-35.22 32.269-35.22h709.911z" />
<glyph unicode="&#xe904;" glyph-name="draft" horiz-adv-x="964" d="M963.765 803.8c0 69.634-56.446 126.082-126.085 126.082h-711.598c-69.635 0-126.082-56.448-126.082-126.082v-711.598c0-69.638 56.448-126.085 126.082-126.085h711.598c69.638 0 126.085 56.446 126.085 126.085v711.598zM737.503 235.556h-507.79c-21.467 0-38.861 17.396-38.861 38.864s17.394 38.858 38.861 38.858h507.79c21.468 0 38.864-17.39 38.864-38.858s-17.396-38.864-38.864-38.864zM737.503 416.911h-507.79c-21.467 0-38.861 17.394-38.861 38.861s17.394 38.861 38.861 38.861h507.79c21.468 0 38.864-17.394 38.864-38.861s-17.396-38.861-38.864-38.861zM737.503 582.72h-388.615c-21.467 0-38.862 17.394-38.862 38.861s17.395 38.861 38.862 38.861h388.615c21.468 0 38.864-17.394 38.864-38.861s-17.396-38.861-38.864-38.861z" />
</font></defs></svg>